fold,read_id,energy
.......................................((((((...........(((..(((..(((((((...(((..(((.(((((((.(((....)))(((..((((((....))))))...))).........................(((((......))))).((........))..(((((.(((.(((..((...........))..))).))))))))(((((((((................)).))))))).........(((.((((....((((.(((((((((((((.(((((..........))))).))).)))))))))).))))....)))).)))....))))))))))..)))....))))))).....))).....)))....((((..........))))............)))))).............,b'5e096b9c-740e-4e6c-b44a-5b4c1d42a047',-84.2
...........((((.......................((((..............)))).(((..(((((((...(((..(((.(((((((................(((((......)))))....((.((((((.(((((......((((.((((((..................))).))).)))))))))....(((.....)))))))))..)).(((.((.((.((((((((................)).)))))))).)).)))(((..((((....((((.(((((((((((((.(((((..........))))).))).)))))))))).))))....))))..)))...))))))))))..)))....))))))).....)))...........((.((......)))).))))...............(((.......)))..,b'd10b4afe-16e8-4f20-8a03-2447d5f33c7f',-82.6
.....................................................((((.((......((((........(((((.((((((((.(((....)))(((..((((((....))))))...)))..(((((..((((((((..((((.((((((..................))).))).))))...)))))))).........)))))........(.((.((.((((((((................)).)))))))).)).).(((((.((((.........(((((((((((((.(((((..........))))).))).)))))))))).........)))).)))))..)))))))).....((((((....(((......))))))))).........)))))......))))......))..)))).(((.......)))..,b'6595499a-1264-45d4-a48b-89556a8ebaae',-83.6
.......................................((((((...........(((..(((..(((((((...(((..(((.(((((((.(((....)))(((..((((((....))))))...))).((((((..((((((((..((((.((((((..(((......)))....))).))).))))...)))))))).........))))))..............(((((((((.....((((.......))))..).)))))))).(((((.((((....((((.(((((((((((((.(((((..........))))).))).)))))))))).))))....)))).)))))..))))))))))..)))....))))))).....))).....))).((.((((..........))))))..........)))))).............,b'b29e5bdd-3508-4ccb-a310-56000f007f90',-95
...........(((((((((...............(((((((..((((((.........(((((((............)))).))).....)))).))..................(((........))).((((((..((((((((..((((.((((((..................))).))).))))...)))))))).........))))))....)).)))))..(((((((((.....((((.......))))..).)))))))).(((((.((((....((((.(((((((((((((.(((((..........))))).))).)))))))))).))))....)))).)))))...........))))))..)))............................................................((.........))..,b'711685a1-4ea2-48c9-9158-abeba300f3f0',-76.1
...........((((.(((((((.....((........(((((((((((.(((((((...(((.(((((((.....(((((...(((..((((......(((((....((((((....))))))...)))))......))))...))))))))....)))))))...........((((.((.((((((((((......((.......)).((.(((((...((((....))))....)))))))...........)))))).)))).)).)))).((..((....................))..)).)))....)))))))........)))))))))))........)).))))))).................................................((......))...))))...............(((.......)))..,b'1c6562d4-fb7a-43f4-9ad7-f6041888ec54',-76.9
...........((((((..(((((.....((((....(((((..............((((...((((((((.....(((((...(((..((((......(((((....((((((....))))))...)))))......))))...))))))))....)))))))).....))))..............)))))...))))...)))))..))))))........(((((.(((((((((.......((....)).......).)))))))).(((((.((((....((((.(((((((((((((.(((((..........))))).))).)))))))))).))))....)))).)))))..............(((.(((...........................))).))).))))).....................(((.......)))..,b'e0ae02f8-9c6a-4636-a30f-8784dff7fc4c',-84.3
...........((((......................(((((..............))))).(((((((((.....(((((...(((..((((......(((((....((((((....))))))...)))))......))))...))))))))....)))))))))......((......)).((((..((((((((..(((.....))).((((..........((.((.((((((((................)).)))))))).))....((((.((((....((((.....(((((((((.(((((..........))))).))).)))))).....))))....)))).)))).........))))...((((((....(((......))))))))).)))))))).))))......))))...............(((.......)))..,b'aed8e0c1-9e88-4cb6-87a2-3d560e166d59',-77.4
.............(((((((..................(((((((((((.......((.((((......(((....(((((((((.....)).(((....)))................((.((...........)).))(((......)))...(((((......))))).((......)).(((((.((((((...(((.(((.((........)).))).)))..)))))).))))).)))))))....)))......))))))((((((...(((....((....))...)))..)))))).((((......))))...........))))))))))).......((..........)).......))))))).(((((((((......)))............))))))...........................(((.......)))..,b'4234ee4b-b7bd-4e9f-ae33-8a5adc8d6ced',-70.3
...........((((.(((((((.....((........(((((((((((........(((....(((..(((.(((((((...))))....))).)))..)))...)))..........((.((...........)).))(((......)))...(((((((((...........((((.((.(((((.((((......((.......))....................((((((.((.......))..)))))))))).).)))).)).)))).....))).)))))).......(((.(((..((((......))))..))))))...)))))))))))........)).)))))))..............(((.((((((.((..................)).))))))..)))...))))...............(((.......)))..,b'323de02b-c9f9-4c25-9714-1d2ad48853d7',-70
.....................................................((((.((......((((........(((((.((((((((.(((..........................))).....((((.((((.....))))..)))).(((((......)))))...............(((((.(((.(((..((...........))..))).))))))))(((((((((.....((((.......))))..).)))))))).(((((.((((....((((.(((((((((((((.(((..............))).))).)))))))))).))))....)))).)))))..)))))))).....((((((....(((......))))))))).........)))))......))))......))..)))).(((.......)))..,b'1add32a1-d2ca-4990-bec1-954dc6ee7043',-80.3
..............((((((..................((((((((((.((.((((((.((((((....((((.....((((.((.....))..)))).(((((....((((((....))))))...))))).....))))....))).)))..)))))).))................((.((((.(...........).)))).)).(((.((..(((.(((.((.((.((((((((................)).)))))))).)).)))...)))..)).)))..............(((..((((......))))..))).......)))))))))).......((..........)).......)))))).((((...(((........................)))...))))....................(((.......)))..,b'1df9266a-5096-42cd-b452-9eaff1a92861',-72.6
...........((((.(((((((.....((........(((((((((((.(((((((.((..(((((((((.....(((((...(((..((((......(((((....((((((....))))))...)))))......))))...))))))))....))))))))).)).(.((((..((((((((((.(((((((..(((.(((.((........)).))).))).))))))).))))).......)))))...))))).((((...((.((.(((((.........))))))).))...))))...........)))))))........)))))))))))........)).)))))))........((.(((((((((....(((......)))))))).))))))..............))))...............(((.......)))..,b'7d60895b-4f3c-4f89-85be-e761864d50ea',-87.8
...........((((.(((((((.....((........(((((((((.........((((...((((((((.....((((.........((((........(......(((((......))))).....)........)))).......))))....)))))))).....)))).........(((((.(((((((..(((.(((.((........)).))).))).))))))).)))))......((.......)).((....))..(((.............)))..........((((.((((........))))..)))).........)))))))))........)).)))))))..............(((.(((((((((......)))............))))))..)))...))))...............(((.......)))..,b'd20700b0-6b2e-4dc3-80fc-8a10e84cc2a2',-66.2
...........((((.(((((((.....((........(((((((((((....((((((((.((((...((((.....((((.((.....))..)))).(((((....((((((....))))))...))))).....)))).))))))))).)))((((((((((....(((...((((.((.((((((((((......((.......)).((.(((((...((((....))))....)))))))...........)))))).)))).)).)))).))))))).)))))).......((((.((((........))))..)))).......)))))))))))........)).))))))).....(((((.(((.....))).)))))..................................))))...............(((.......)))..,b'e29c9ed1-5d18-4c93-b958-902121f2d5ad',-87.2
.......................................((((((...........(((..(((..(((((((...(((..(((.(((((((.(((....)))((((............((.((...........)).))(((......)))...)))).((((((....(.((((..((((((((((.((((((...(((.(((.((........)).))).)))..)))))).))))).......)))))...)))))))))))......(((((.((((....((((.(((((((((((((.(((((..........))))).))).)))))))))).))))....)))).)))))..))))))))))..)))....))))))).....))).....))).((.((((..........))))))..........)))))).............,b'3fd96ddc-f090-420a-b3db-c66e9de0fe5a',-83.8
...........((((.(((((((.....((........((((((((((.((.((((((.((((......((((.....((((.((.....))..)))).(((......((((((....)))))).....))).....)))).......))))..)))))).)).........(((.....(((...((((.((((....(((.....))).(((.......))).(((((.(((((.((.......))..)))))))))).))))...))))....))).....)))..........(((.(((..((((......))))..))))))....))))))))))........)).)))))))........((.(((((((((....(((......)))))))).))))))..............))))...............(((.......)))..,b'b9598675-e712-45fd-b42e-19ebe1458c42',-79.6
...........((((.(((((((.....((........(((((((((((.......((((.....((((((.......((((.((.....))..)))).(((((................))))).........(((..((((((((..((((.((((((..(((......)))....))).))).))))...))))))))...))).)))).))......))))((.((.((((((((................)).)))))))).))...............................((((.(((((..........))))).)))).)))))))))))........)).)))))))......((((.......)))).((((((.((.(((..............))).)).))))))))))...............(((.......)))..,b'77ed3f97-67c3-4592-bfcd-1f3c66d3ca0e',-75.9
...........((((.(((((((.....((........((((((((((.....((.(((.(((...((((.......((((..((.....)).(((....)))(((..(((((......)))))...))).((((((..((((((((..((((.((((....(((......))).......)))).))))...)))))))).........)))))).........(((((.(((((.((.......))..)))))))))).))))...))))...))).))).))..........((..(((((..((((......))))..)))))..)).))))))))))........)).)))))))....((((((.(((.....))).)))))).................................))))...............(((.......)))..,b'c2b212ef-46fd-46c6-8043-c75436574545',-83.2
.......(((((..((((((................((((...(((..((...((((((((.................((((.((.....))..))))...(((((((......((((((.((((..((((((.......(((......))).((.((((((((((.((.................((.((.((......(((........))).........)))).))(((((((((.....((((.......))))..).)))))))).....))))))).)))))))............))))))..)))).)))))).......))))))).)))))))).....))...)))...)))).....))))))))))).((((((............................))))))...................(((.......)))..,b'6a38ad80-9ee2-47c8-b9c4-e91dca0b7bd4',-70.6
...........((((.(((((((.....((........(((((((((((....((.((((..(((((((((.....(((((...(((..((((......(((((....((((((....))))))...)))))......))))...))))))))....)))))))))....)))).)).((((((((..((((...(((....((((.(((((.((..(((.(((.((.((.((((((((................)).)))))))).)).)))...)))..)).)))..)).))))......)))...))))...))))))))........)))))))))))........)).)))))))..............(((.(((((((((......)))............))))))..)))...))))...............(((.......)))..,b'df0e554c-3ff7-40e4-8153-0067318f3d12',-87.5
...........((((.(((((((.....((........(((((((((((.((((((((((..(((((((((.....((((.........((((..........(((..(((((......)))))...)))........)))).......))))....)))))))))....)))..........((((((((((......(((.....)))....................((((((.((.......))..)))))))))))).)))).(((.............))).............................)))))))........)))))))))))........)).)))))))..............((((((....(((......)))))))))....................))))...............(((.......)))..,b'0a482274-8e63-405c-9d2d-53c9f87a5713',-73.5
.(((((...(((((..(((((((.....((........((((((((((........((((..(((.(((((.......((((.((.....))..)))).(((((....((((((....))))))...))))).((((..((((((((..((((.((((((..(((......)))....))).))).))))...))))))))...))))))))).)))....))))(((((.(((((.((.......))..)))))))))).....((.(((.............))).)).....((..(((((..((((......))))..)))))..)).))))))))))........)).))))))).............))))).))))).((......))..............................................(((.......)))..,b'72bb376b-f5c6-4e4b-96cc-441b994be90b',-85.5
...........((((.(((((.......((........(((((((((((.......((((.....((((((.......((((.((.....))..)))).(((((....(((((......)))))...))))).((((..((((((((..((((.((((((..(((......)))....))).))).))))...))))))))...)))))))).))......)))).(((.(((((((((.....((((.......))))..).)))))))).)))....((((..................)))).((((......))))...........)))))))))))........))...))))).......((....(((.(((.....(((...........))).....))).)))....))..))))...............(((.......)))..,b'4c5af8ad-3c2e-4964-9229-3d357aab75f3',-79.4
......((((((..((((((..................(((((((((((.((((((((((...((((((((.....(((((...(((..((((......(((((.......(((....)))......)))))......))))...))))))))....)))))))).....))).........((((((.((((((...(((......................)))..)))))).))))))..(((((((((.(.((....))..((.(((.............))).)).....))))))))))...........)))))))........))))))))))).......((..........)).......)))))))))))).(((((.((.(((..............))).)).))))).((((((......................)))))),b'24921ce5-f1b3-4438-840f-520ed6539083',-67.6
..................(((((.....((........(((((((((((.(((((((...(((.((............((((.((.....))..)))).....(((..(((((......)))))...)))........(((............((.(((((((((....(((...((((.((.((((((((((......(((.....))).((.(((((...((((....))))....)))))))...........)))))).)))).)).)))).))))))).)))))))...........))).)).)))....)))))))........)))))))))))........)).)))))...................................................................................(((.......)))..,b'31bb2614-8682-407b-ba57-e5bc88532a49',-75.2
.......................................((((((...........(((..(((..(((((((...(((..(((.(((((((.(((....)))(((..((((((....))))))...)))........(((((......((((.((((((..(((......)))....))).))).)))))))))....((.(((.((........)).))).)).....(((((((((.....((((.......))))..).)))))))).(((((.((((....((((.(((((((((((((.(((((..........))))).))).)))))))))).))))....)))).)))))..))))))))))..)))....))))))).....))).....))).((.((((..........))))))..........)))))).............,b'f34c8574-e174-496b-8f29-f7b9a05187c7',-91.3
................(((((((.....((........(((((((((((...((((((.(((((((............)))).)))....(((.............................................))).............))))))(((((.....(.((((..((((((((((.((((((...(((.(((.((........)).))).)))..)))))).))))).......)))))...))))).)))))...............................(((.(((..((((......))))..))))))...)))))))))))........)).))))))).((.(((.((.((((((.............(((((.............................)))))...........)))))).)).))).)),b'a14328fa-053f-44bc-bdab-599b192c6e85',-63.9
.(((((................................((((((((((.....((((((((.((((...((((.....((((.((.....))..))))..........((((((....)))))).............)))).))))))))).)))((((((((((....(((...((((.((.(((((((((((((..(((.(((..............))).))).)))((((((.((.......))..)))))))))))).)))).)).)))).))))))).)))))).....((..(((((..((((......))))..)))))..)).)))))))))).......((..........))...........(((((((..............))))))).))))).................................(((.......)))..,b'60b40bcf-400f-4b99-b6e6-7b1a4fdaaa35',-83.6
...........((((.(((((((.....((........(((((((((((.((.((.((((...((((((((.....((((...((.....)).(((....))).............(((........)))...................))))....)))))))).....)))).........((((((((........(((.....)))....((((........))))((((((.((.......))..))))))..)))).)))).(((((...(((....((....))...)))..)))))..((((......))))......)).)))))))))))))........)).)))))))..............((((((....(((......)))))))))....................))))...............(((.......)))..,b'46d4d3e7-daca-44ba-87e1-d1617169ad0a',-64.3
.......................................((((((...........(((..(((..(((((((...(((..(((.(((((((.(((....)))................((.((...........)).)).((((((..(((.((.((((......))))))..(((((((((...(((((.((......(((........))).........)))))))(((((((((.....((((.......))))..).))))))))............................(((((.(((..............))).))))).)))))))))......)))..))))))...))))))))))..)))....))))))).....))).....))).((.((((..........))))))..........)))))).............,b'90cde896-bcd2-43a3-845b-bb6ea9ee4dfc',-71.8
...........((((.(((((((.....((........(((((((((((.......((((..(((((((((.....(((((...(((..((((......(((((....((((((....))))))...)))))......))))...))))))))....)))))))))....)))).((((.((.((((((((((......(((.....))).((.(((((...((((....))))....)))))))...........)))))).)))).)).))))..........(((((.(((((..............))))).)))))..........)))))))))))........)).)))))))........((.((((((((((..............)))))).))))))..............))))...............(((.......)))..,b'8b1c55c1-de63-467f-a4e2-6f75bebabd4f',-90.3
...........((((.(((((((.....((........(((((((((((.((((((((((..(((((((((.....(((((...(((..((((......(((((....((((((....))))))...)))))......))))...))))))))....)))))))))....))).........((((((.(((((((..(((.(((.((........)).))).))).))))))).))))))..(((((((((.((.......................................)))))))))))...........)))))))........)))))))))))........)).)))))))........((.((((((((((..............)))))).))))))..............))))...............(((.......)))..,b'9432e22f-b347-4149-83c5-e55aa11bb7a7',-84
.((((.((((((..((((((....................................((((..(((.(((((.......((((.((.....))..)))).(((((....((.((......)).))...))))).((((..((((((((..((((.((((((..(((......)))....))).))).))))...))))))))...))))))))).)))....)))).....(((((((((.....((((.......))))..).)))))))).(((((.((((....((((.(((((((((((((.(((((..........))))).))).)))))))))).))))....)))).)))))...........))))))))))))..))))...................((((..........))))................(((.......)))..,b'b849217d-46c0-44b6-ad4c-7649a4ad3d8f',-88.1
...........((((.(((((((.....((........(((((((((((.......((((..(((((((((.....(((((...(((..((((......(((((....((((((....))))))...)))))......))))...))))))))....)))))))))....)))).((((.((.((((((((((......(((.....))).((.(((((...((((....))))....)))))))...........)))))).)))).)).))))......................(.(((((..((((......))))..))))))...)))))))))))........)).)))))))........((....((((((....(((......)))))))))....))..............))))...............(((.......)))..,b'5b1fc306-b061-4868-8a8c-ab7fbb9ab3ed',-88.5
.......................................((((((...........(((..(((..(((((((...(((..(((.(((((((.((......)).................................(((((((......((((.((((((..(((......)))....))).))).))))))))))).(((.(((.((........)).))).)))....(((((((((.....((((.......))))..).)))))))).(((((.((((....((((.(((((((((((((......................))).)))))))))).))))....)))).)))))..))))))))))..)))....))))))).....))).....))).((.((((..........))))))..........)))))).............,b'9e2ac652-adcc-40b7-ac83-7b883f15396a',-82.1
...........((((.(((((((.....((........((((((((((.....((((((((...((...(((......((((.((.....))..)))).....(((.....((......))......)))........))).))..))))).)))((((((((((.......((........))..(((((.((......(((........))).........)))))))(((((((((.....((((.......))))..).))))))))........)))).)))))).........(((((.((................)).))))).))))))))))........)).)))))))....((((((.(((.....))).)))))).................................))))...............(((.......)))..,b'0c40fc02-30cd-4714-b746-24cfd813885e',-67
...........((((.(((((((.....((........(((((((((((.((((((((((..(((((((((......((((....(((..(((..........(((..(((((......)))))...)))........))).)))...)))).....)))))))))....))).........((((((.(((((((..(((.(((.((........)).))).))).))))))).))))))........(((((....((....))....).)))).(.((((..................)))).).........)))))))........)))))))))))........)).)))))))........((.((((.(((...................))).))))))..............))))...............(((.......)))..,b'dc88ec1c-9e69-4683-852d-bd1697d20152',-72.9
...........(((((((((..................(((((((((((.((.(((.((.((((((((.((((...((((...((.....)).(((....)))(((..((((((....))))))...))).((((((..((((((((..((((.((((((..(((......)))....))).))).))))...)))))))).........)))))).......)))))))).)))))))).)).((((.......))))((....((.(((.............))).))....)).((((.((((........))))..)))).))).))))))))))))).......((..........)).......))))))..)))............................................................(((.......)))..,b'0ba5eb8b-4698-4d83-9ee0-e98e882814ff',-78.5
.......(((((..((((((.......((((........((((((((((((......((((.((((...((((.((((((...))).)))..................((((((....)))))).............)))).)))))))))))))..))).))))........)))).........(((((.(((.(((...(...........)...))).))))))))(((((((((.....((((.......))))..).)))))))).(((((.((((.........(((((((((((((.(((((..........))))).))).)))))))))).........)))).))))).((......))))))))))))).((((((....(((..............)))....))))))...................(((.......)))..,b'5265682a-a7f3-49bb-9fc2-33437810387d',-76.7
...........((((..............................((((((.((..((((..(((.(((((.......((((.((.....))..)))).(((((....((((((....))))))...))))).((((..((((((((..((((.((((((..(((......)))....))).))).))))...))))))))...))))))))).)))....))))...((.((((((((.....((((.......))))..).))))))))).((((.((((....((((.(((((((((((((.(((((..........))))).))).)))))))))).))))....)))).))))............)).))))))....(((((.((.(((..............))).)).))))).))))...............(((.......)))..,b'68359567-68de-4ce2-9a10-f3138e8b7584',-90
...........((((.(((((((.....((........((((((((((........((((.....((((((.......((((.((.....))..)))).(((((....(((((......)))))...))))).((((..((((((((..((((.((((((..(((......)))....))).))).))))...))))))))...)))))))).))......)))).(((.(((((((((.....((((.......))))..).)))))))).)))....................((..(((((..((((......))))..)))))..)).))))))))))........)).))))))).....(((......))).(((((((((......)))............))))))........))))...............(((.......)))..,b'6bd518f2-04f0-4f0e-8be6-4b1ce3d3388d',-86
..........(((((((((..................((((...((((((......((.((...................)).))......)))).)).....(((..(((((......)))))...)))........))))..)))).))))).(((((......)))))...........((((((.(((((((..(((.(((.((........)).))).))).))))))).)))))).((..((((((...((....)).((....)).((((.((((....((((.((((((((((.((..((((......))))......))..)))))))))).))))....)))).)))).............(((((((((....(((......)))))))).)))).((((..........))))......))))))..))(((.......)))..,b'a1dcd08f-c4fb-4882-8693-ff2425187925',-80.7
......((((((..((((((..................((((((((((.....((((((((.((((...((((....(((...))).........................(((..(((........)))...))).)))).))))))))).)))((((((((((.......((........))..(((((.(((.(((..((...........))..))).))))))))(((((((((.....((((.......))))..).))))))))........)))).)))))).....((..(((((..((((......))))..)))))..)).)))))))))).......((..........)).......)))))))))))).(((((.((.(((..............))).)).)))))....................(((.......)))..,b'c33ca518-241b-4d6e-b37e-ff253ab31fd1',-78.9
......((((((((....(((((.....((........((((((((((.....((((((((.((((...((((.....((((.((.....))..)))).............(((..(((........)))...))).)))).))))))))).)))(((((((((((.((.(((.((.......((((((((((......(((.....))).(((.......)))......((((((.((.......))..)))))))))))).)))))).)))...))))))).)))))).....((..(((((..((((......))))..)))))..)).))))))))))........)).)))))...............))))).))).(((((.((.(((..............))).)).)))))....................(((.......)))..,b'76343b18-485d-4e34-b926-296e908b7008',-80.8
.............(((((((..................((((((((((.....((((((((.((((...((((.....((((.((.....))..)))).(((((....((((((....))))))...))))).....)))).))))))))).)))(((((((((((.(....(((...((...(((((.((((......((.......)).(((.......)))......((((((.((.......))..)))))))))).).)))).))..)))..)))))).)))))).....((..(((((..((((......))))..)))))..)).)))))))))).......((..........)).......))))))).((((((.((..................)).))))))........((((((......................)))))),b'a9341127-bcb1-457f-b063-742450f51412',-78.6
...........((((.......................(((((((((((....((.(((.(((...((((......((((...)))).((((.(((....)))(((..((((((....))))))...))).((((((..((((((((..((((.((((((..(((......)))....))).))).))))...)))))))).........)))))).......)))).((.((((((((................)).))))))))..))))...))).))).))(((((.(((((..............))))).)))))..........))))))))))).......((..........))..............((((...(((........................)))...)))).))))...............(((.......)))..,b'7f8f1cbc-3c1e-4bd3-9652-270ba5bd9fbf',-77.4
...........((((.(((((((.....((........(((((((((((...((((((.((((......((((.((((((...))).)))..((((....)))).................................)))).......))))..))))))(((((.....(.((((..((((((((((.(((((((..(((.(((.((........)).))).))).))))))).))))).......)))))...))))).)))))..((.((.(((((.........))))))).)).(((((..((((......))))..)))))....)))))))))))........)).))))))).....(((((.(((.....))).)))))..................................))))...............(((.......)))..,b'df41b7de-d20e-4227-a468-b672db340892',-76.5
...........((((.(((((((.....((........((((((((((.....((((((((.((((...((((.....((((.((.....))..)))).(((((....((.((......)).))...))))).....)))).))))))))).)))(((((......)))))........((.((((.(((.......))).)))).)).(((.((......(((.((.((.((((((((................)).)))))))).)).)))........)).)))........((..(((((..((((......))))..)))))..)).))))))))))........)).)))))))..............((((((....(((......)))))))))....................))))...............(((.......)))..,b'b89349ae-f498-4787-ba07-73716eb39bc4',-75
......((((((..((((((.......((((......((((...............((((..(((.(((((.......((((.((.....))..)))).....(((..((((((....))))))...))).((((....((((((((..((((.((((((..(((......)))....))).))).))))...))))))))..)))).))))).)))....))))(((((.(((((.((.......))..)))))))))).))))....)))).(((.((((....((((.(((((((((((((.(((((..........))))).))).)))))))))).))))....)))).))).............)))))))))))).(((((.((.(((..............))).)).)))))....................(((.......)))..,b'5f9b0201-948f-4689-b85f-96556f0a8159',-92
.......................................((((.(((............((((.((...(((...((((((((.((((((((...........................((.((...........)).))(((......)))........(((((.....................(((((.((.((........)).)).))))).........(((((.(((((.((.......))..)))))))))).)))))......(((((.((((....((((.(((((((((((((.(((((..........))))).))).)))))))))).))))....)))).)))))..)))))))).....((((((....(((......))))))))).))))).))).)))...))))))...........))))))).............,b'cbec6f19-9d50-4e33-8ee0-5dc2bc7ced93',-72.7
............((((.(((.................(((((..............))))).(((((((((.....(((((...(((..((((......(((...........................)))......))))...))))))))....)))))))))............((((((((((.(((((((..(((.(((.((........)).))).))).))))))).))))).......))))).)))..))))((((......(((((.((((....((((.(((((((((((((..((((......))))......))).)))))))))).))))....)))).))))).((......)).(((((((((....(((......)))))))).)))).((((..........))))...........................)))),b'19e8bb88-2eb5-49a2-8fe8-e06822c2b79c',-79.5
...........((((.(((((((.....((........((((((((((.....((((((((.((((...((((.....((((.((.....))..)))).............(((..(((........)))...))).)))).))))))))).)))(((((((((((....................(((((.(((.(((..((...........))..))).))))))))(((((((((................)).))))))).............))))).)))))).....((..(((((..((((......))))..)))))..)).))))))))))........)).)))))))........((.(((((((((....(((......)))))))).))))))..............))))...............(((.......)))..,b'f0cc0506-fa4b-4d34-afbc-f0380f7ca898',-81.6
.......(((((..((((((..................(((((((((((....((((((((.((((...((((...((((...)))).(((......)))...(((..((((((....))))))...))).......)))).))))))))).)))((((((((((.....................(((((.(((.(((..((...........))..))).))))))))(((((((((.....((((.......))))..).))))))))........)))).)))))).......((((.((((........))))..)))).......))))))))))).......((..........)).......))))))))))).((((((....(((..............)))....))))))...................(((.......)))..,b'292ea24f-323f-4e68-93af-01e18f4fce58',-81.2
...................(((((....((((((....((((.((((((...((...((.((((((((.((((....(((.(.((.....))..).....................(((........))).((((((..((((((((..((((.((((((..................))).))).))))...)))))))).........)))))).......))).)))).)))))))).)).))..)))).))..))))...((....)).((((.((((.........(((((((((((((.(((((..........))))).))).)))))))))).........)))).)))).................))))))..))))).....................................................(((.......)))..,b'036efa56-1c1f-44d7-80e3-0870b20559a2',-69.5
.((((((............))).))).(((((((((((.((((((((((.(((((((...(((.((............((((.((.....))..))))..........(((((......)))))..............((((.......((....((((((((((............((.((.((((((((((......((((..((....((.........((((....))))...))....)).))))......)))))).)))).)).))......)))).))))))....)).....)))).)).)))....)))))))........))))))))))........((..........))...........)))))...)))))).....................................................(((.......)))..,b'79d54948-15c9-4c5d-af79-63461b105cc3',-66.5
..............(((..(((................(((((((((((.......((((..(((.(((((.......((((.((.....))..)))).(((((....((((((....))))))...))))).((((..((((((((..((((.((((((..................)))).)).))))...))))))))...))))))))).)))....))))((.((.((((((((................)).)))))))).))..........(((((................))))).((((......))))...........))))))))))).......((..........))........(((((((((....(((......)))))))).)))).(((............))).....................)))..)))..,b'20f7b743-9bda-428f-ac5d-f85ff02efebd',-78.9
.............(((((((.......((((......((((...............((((..(((.(((((.......((((.((.....))..)))).(((((....((((((....))))))...))))).((((..((((((((..((((.(((.((......((....))......))))).))))...))))))))...))))))))).)))....))))(((((.(((((.((.......))..)))))))))).))))....)))).(((.((((....((((.(((((((((((((.(((((..........))))).))).)))))))))).))))....)))).))).............))))))).(((...(((........................)))...))).....................(((.......)))..,b'c7564a12-79f9-4ca6-b572-912c28d09464',-88.4
.((((.((((((..((((((.......((((......((((...((((((.........(((((((............)))).))).....)))).))......................(((......((((((((..((((((((..((((.((((((..(((......)))....))).))).))))...))))))))...)))...)))))....)))...(((((.(((((.((.......))..)))))))))).))))....)))).(((.((((....((((.(((((((((((((.(((((..........))))).))).)))))))))).))))....)))).))).............))))))))))))..))))...................((((..........))))................(((.......)))..,b'0acb5128-4707-411c-b3f3-887b41e66cb2',-79.9
......((((((..((((((..................((((..............))))........................((((.(((..............................................(((..............(((((((((((.((.(((.......((.(((((((((((((..(((.(((.((........)).))).))).)))((((((.((.......))..)))))))))))).)))).)))))...))))))).))))))....((((((((((.((................)).))).))))))).)))........((.....))...))).)))).)))))))))))).(((((.((.(((..............))).)).)))))....................(((.......)))..,b'55b20e4a-83d1-46b5-98c4-d21ae7f4a113',-65
...........((((.......................((((..............))))......(((((((...(((..(((.(((((((.(((....)))(((..((((((....))))))...))).((((((..((((((((..((((.((((((..(((......)))....))).))).))))...)))))))).........))))))......((.(..((.((((((((................)).))))))))..).)).((((.((((....((((.(((((((((((((.(((((..........))))).))).)))))))))).))))....)))).))))...))))))))))..)))....)))))))...................((.((......)))).))))...............(((.......)))..,b'5ac0d2e9-85d9-4806-ab24-4b0625e8573e',-90.5
.(((((................................(((((((((((....((.((((...((((((((.....(((((...(((..((((........(((....(.(((......))).)...)))........))))...))))))))....)))))))).....)))).)).(((((((.((.(((((((..(((......................))).))))))).))((((..(((((((((.((..(((....))).......(((((.........))))).)))))))))))..)))).....)))))))........))))))))))).......((..........))...........((((((....(((......))))))))).))))).................................(((.......)))..,b'f417df19-e9ea-4f50-8831-ccbc058d0879',-71.2
.......................................((((((.......((((((.((((......(((......((((.((.....))..)))).(((((....((((((....))))))...)))))......))).......))))..))))))(((((.....(.((((..((((((((((.((((((...(((.(((.((........)).))).)))..)))))).))))).......)))))...))))).)))))......(((((.((((....((((.(((((((((((((.(((((..........))))).))).)))))))))).))))....)))).)))))...((.(((......))).))...........................((((..........))))............)))))).............,b'71a2e46f-1d67-484f-816c-f055771387dc',-80
.((((.((((((..((((((..................(((((((((((.((.((.((((.....((((((.....((((.(((((...(((((((((.....(((..(((((......)))))...))).........................(((((......)))))............)))).))))).....))))))))).)))).))......))))(((((.(((((.((.......))..)))))))))).((((...((.((.((((...........)))))).))...)))).((((......))))......)).))))))))))))).......((..........)).......))))))))))))..))))...................((((..........))))................(((.......)))..,b'b1017970-3978-4ead-a2fc-95fbdfe28764',-76.4
...........((((.(((((((.....((........((((((((((.....((((((((.((((...((((.....((((.((.....))..)))).(((((....((((((....))))))...))))).....)))).))))))))).)))((((((((((....(((...((((.((.((((((((((......(((.....))).((.(((((...((((....))))....)))))))...........)))))).)))).)).)))).))))))).)))))).....((..(((((..((((......))))..)))))..)).))))))))))........)).)))))))..((.(((......))).))..........................................))))...............(((.......)))..,b'7be4807c-5584-4959-a895-9194dbb4c1dc',-90.6
...........((((.(((((((.....((........((((((((((.....((((((((.((((...((((.....((((.((.....))..)))).(((((....((((((....))))))...))))).....)))).))))))))).)))((((((((((....(((...((((.((.((((((((((......(((.....))).((.(((((...((((....))))....)))))))...........)))))).)))).)).)))).))))))).)))))).....((..(((((..((((......))))..)))))..)).))))))))))........)).)))))))..............(((.(((((((((......)))............))))))..)))...))))...............(((.......)))..,b'8f1b79f1-0989-45ee-be1e-cbf3ef81f8a3',-92.9
...........((((.(((((((.....((........(((((((((((.((.((.((((..(((((((((.....(((((...(((..((((......(((((....((((((....))))))...)))))......))))...))))))))....)))))))))....)))).........(((((.((((((...(((.(((.((........)).))).)))..)))))).)))))...(((((((((.((..(((....))).......((((...........)))).))))))))))).((((......))))......)).)))))))))))))........)).)))))))..((((.....)))).(((((...(((........................)))...)))))))))...............(((.......)))..,b'bc711c28-bc54-4e74-b0d6-05e12aed0145',-84.5
...........((((.(((((((.....((........((((((((((........((.((((((((((((.....(((((...(((..((((......(((((....((((((....))))))...)))))......))))...))))))))....)))))))).....(.((((..((((((((((.((((((...(((.(((.((........)).))).)))..)))))).))))).......)))))...))))).)))))).......(((((.........))))).(((..(((((..((((......))))..)))))..)))))))))))))........)).)))))))........((.(((((((((................))))).))))))..............))))...............(((.......)))..,b'004df22f-8198-4890-bd3c-d73dc82e8c41',-81.7
...........((((.(((((((.....((........((((((((((.....((((((((................(((...)))....(((.............................................))).....))))).)))((((((((((....(((...((((.((.((((((((((......(((.....))).((.(((((...((((....))))....)))))))...........)))))).)))).)).)))).))))))).)))))).....((..(((((..((((......))))..)))))..)).))))))))))........)).)))))))........((.(((((((((....(((......)))))))).))))))..............))))...............(((.......)))..,b'f2b42509-3e3f-46d4-926a-15fdf81f63ab',-77.2
...........((((.(((((((.....((........(((((((((((....((.((((..(((((((((.....(((((...(((..((((......(((((....((((((....))))))...)))))......))))...))))))))....)))))))))....)))).)).(((((((.((.((((((...(((.(((.((........)).))).)))..)))))).))((((..(((((((((.((..(((....))).(((.............))).......)))))))))))..)))).....)))))))........)))))))))))........)).)))))))..((((.....)))).(((((...(((........................)))...)))))))))...............(((.......)))..,b'5c7e69bd-cf1e-465c-a1b6-36d43838a4d7',-86.8
..........(((((((((...................(((...((((((......((.((...................)).))......)))).))..................(((........)))........)))...)))).)))))....(((((((..(.((((.((......((((((.(((((((..(((.(((.((........)).))).))).))))))).))))))..)).))))).)))))))((((.((((..(((.(((.((((....((((.(((((((((((((.((................)).))).)))))))))).))))....)))).)))..............(((((((((....(((......)))))))).)))).((((..........)))).........)))..)))).........)))),b'dfeb7c52-997c-4cdc-b026-253951afa5a5',-73.9
.((((.((((((..((((((..................(((((((((((.((((((((((..(((.(((((.......((((.((.....))..)))).(((((....((((((....))))))...))))).((((..((((((((..((((.((((((..(((......)))....))).))).))))...))))))))...))))))))).)))....))).(((((.(((((.((.......))..)))))))))).((((...((....(((((.........)))))...))...))))...........)))))))........))))))))))).......((..........)).......))))))))))))..)))).....................................................(((.......)))..,b'b0f360ae-5014-42cc-833b-7cc6bf7410ec',-84.1
...........((((.(((((.......((........(((((((((((.((((((((((..(((.(((((.....((((.(((((...((((.((((.....(((..(((((......)))))...))).........................(((((......))))).((......)).))))..)))).....))))))))).))))).)))....))).(((((.(((((.((.......))..)))))))))).((((...((.((.(((((.........))))))).))...))))...........)))))))........)))))))))))........))...)))))..((((.....)))).(((((...(((........................)))...)))))))))...............(((.......)))..,b'fc45fc5d-810d-46aa-b134-e739f6a2e943',-75.2
.(((((....(((((((((...................((((..............))))................((((...))))..((((.............................................))))..)))).))))).((((((((((..........((((.((.((((((((((......(((.....)))....((((........))))((((((.((.......))..)))))))))))).)))).)).))))....)))).)))))).......(((((((.(((((..........))))).))).)))).(((((......))))).......................(((((((..............))))))).))))).................................(((.......)))..,b'32417014-9a74-4e0c-9bc7-84d5b7693ed0',-65.9
......((((((..((((((..................((((((((((.....((((((((.((((...((((...((((...))))..................................((((...)))).....)))).))))))))).)))(((((((((((.((.................(((((.(((.....(((........)))........))))))))(((((((((.....((((.......))))..).)))))))).....))))))).)))))).....((..(((((..((((......))))..)))))..)).)))))))))).....(((......))).((......)))))))))))))).(((((.((.(((..............))).)).)))))....................(((.......)))..,b'0e6ba2b0-4381-4466-b43b-e04b31f7080c',-78.6
.......................................((((((...........(((..(((..(((((((...(((..(((.(((((((.(((....)))(((..((((((....))))))...))).((((((..((((((((..((((.((((((..(((......)))....))).))).))))...)))))))).........))))))......((.((.((.((((((((................)).)))))))).)).)).((((.((((....((((.(((((((((((((.(((((..........))))).))).)))))))))).))))....)))).))))...))))))))))..)))....))))))).....))).....))).((.((((..........))))))..........)))))).............,b'6f21fca6-4a56-4582-991b-20d6346662f1',-93.6
...........((((.....................((((.(((.(((((((((..(((((..((((((((.....(((((...(((..((((......(((((....((((((....))))))...)))))......))))...))))))))....)))))))).....((..(((((((((((.(((((.((..............)).))))).....(((.(..((.((((((((................)).))))))))..).))).(((((.........)))))....((.((((..((((......))))..))))))..)))))))))))..))....((..........))....)))))...)))))).))).)))............)))).((.((......)))).))))...............(((.......)))..,b'f6966fe8-d17d-4e0e-bf74-acc88f92d004',-77.3
......((((((..((((((..................((((((((((.((.((((((.((((......(((......((((.((.....))..)))).......................(((.....)))......))).......))))..)))))).)).........((((..........))))............((((.(((((.((..(((.(((.((.((.((((((((................)).)))))))).)).)))...)))..)).)))..)).)))).((((.((((........))))..))))........)))))))))).......((..........)).......)))))))))))).(((((.((.(((..............))).)).)))))....................(((.......)))..,b'737d452e-6c89-48c0-8035-e82f243ebc97',-68.5
...........((((.(((((((.....((........(((((((((((.......((((...((((((((.....(((((...(((..((((..........(((..((((((....))))))...)))........))))...))))))))....)))))))).....)))).((((.((.((((((((((......(((.....)))....((((........))))((((((.((.......))..)))))))))))).)))).)).))))..........(((((.(((((..............))))).)))))..........)))))))))))........)).)))))))..((((.....)))).(((((...(((........................)))...)))))))))...............(((.......)))..,b'2949e3c5-b3f0-4c28-a919-c0ec56cb6014',-83.9
......................................((((.((((((...((...((.((((((((.(((.....((((..((.....)).(((....)))........................(((.((((((((((((......((((.(((.((....................))))).)))))))))))..(((.....))).)))))..))).))))..))).)))))))).)).))..)))).))..)))).((((......(((((.((((....((...(((((((((((((.(((((..........))))).))).))))))))))...))....)))).)))))...((.(((......))).))..((((((.((.(((..............))).)).)))))).(((...((((...)))).)))........)))),b'76e560a7-6dc7-4293-8eeb-3bf462c08bd9',-76.9
...........((((.(((((((.....((........((((((((((........((((..(((((((((.....(((((...(((..((((......(((((....((((((....))))))...)))))......))))...))))))))....)))))))))....)))).((((.((.((((((((((......(((.....))).((.(((((...((((....))))....)))))))...........)))))).)))).)).))))....................((..(((((..((((......))))..)))))..)).))))))))))........)).)))))))..((((.....)))).(((((...(((........................)))...)))))))))...............(((.......)))..,b'ff0fbf6f-04a2-4a0d-ad0d-5fa1f06cb219',-89.9
...........((((.(((((((.....((........(((((((((((.(((((((...(((.((............((((.((.....))..))))..........(((((......)))))..............(((....((..((.((.((((((((((....(((...((((.((.((((((((.((.((........)).))..................((.(((((.((.......))..))))))).)))).)))).)).)))).))))))).))))))...)).))..))))).)).)))....)))))))........)))))))))))........)).)))))))........((.(((((((((....(((......)))))))).))))))..............))))...............(((.......)))..,b'd23ebe5f-4604-4b20-9bd6-595be043a10b',-76.9
...........((((.(((((((.....((........(((((((((((.((.((.((((...((((((((.....(((((...(((..((((......(((......((((((....)))))).....)))......))))...))))))))....)))))))).....)))).........(((((.....))))).(((.....)))....((((........))))(((((((((.....((((.......))))..).))))))))........(((((................))))).((((......))))......)).)))))))))))))........)).)))))))........((.(((((((((....(((......)))))))).))))))..............))))...............(((.......)))..,b'7d237cf7-cb4c-437b-b752-5807a50c5bef',-79.1
...........((((.(((((((.(.(((((.......((((..............))))......(((((.......((((.((.....))..)))).(((((.......((......))......))))).((((..((((((((....((.((((.......................)))).)).....))))))))...))))))))).((((........))))(((((((((.....((((.......))))..).)))))))).(((((.((((.........(((((((((((((..((((......))))......))).)))))))))).........)))).)))))..............))))).))))))))......................((......))...))))...............(((.......)))..,b'f7728d37-eb32-4e98-96ba-c4625a959851',-66.6
............((((.....................((..........)).((((((.((((......((((.....((((.((.....))..)))).(((((....((((((....))))))...))))).....)))).......))))..))))))((((((.((.(((.((......((((((.((((((...(((......................)))..)))))).))))))..)).))))))))))).))))((((....((((...((.((....((((.(((((((((((((.((................)).))).)))))))))).))))....)).......................(((.(((((((((......)))............))))))..))).....................))..))))....)))),b'47de0c04-507c-4270-b000-bc035d11bd0c',-73
...........((((.(((((((.....((........(((((((((((.((((((((((...((((((((.....(((((...(((..((((......(((........(((......))).......)))......))))...))))))))....)))))))).....)))..........(((((.(((((((..(((.(((.((........)).))).))).))))))).)))))...............((....((((...((.((.(((((.........))))))).))...))))....)).....)))))))........)))))))))))........)).)))))))........((.(((((((((....(((......)))))))).))))))..............))))...............((.........))..,b'8ed9f31b-deac-40a0-87e3-628931a3ef60',-73.9
...........((((.(((((((.....((........((((((((((........((((..(((((((((.....(((((...(((..((((........(((.......(((....)))......)))........))))...))))))))....)))))))))....)))).....((.((((.(...........).)))).)).(((.((..(((.(((.((.((.((((((((................)).)))))))).)).)))...)))..)).)))........((..(((((..((((......))))..)))))..)).))))))))))........)).)))))))....((((((.(((.....))).)))))).................................))))...............(((.......)))..,b'a399649d-a955-4610-80b6-fb00d0208882',-77.1
................(((((((.....((........(((((((((((.(((((((...(((.(((((((.....(((((...(((..((((..........(((.....((......))......)))........))))...))))))))....)))))))........((........))..(((((.(((.(((..((...........))..))).))))))))(((((((((.....((((.......))))..).))))))))......(.(((....................))).)..)))....)))))))........)))))))))))........)).))))))).((.(((.((.((((((.....(((.((..((((((...........................)))))).)).)))....)))))).)).))).)),b'8b04c500-f743-4c92-9542-1506fc7d1d09',-71.3
...........((((.(((((((.....((........(((((((((((.((((((((((..(((((((((.....(((((...(((..((((......(((((....((((((....))))))...)))))......))))...))))))))....)))))))))....))).............(((((.((.((........)).)).))))).....(((((((..(((((((((.....((((.......))))..).))))))))...(((((.........)))))......)))))))..........)))))))........)))))))))))........)).)))))))........((.(((((((((....(((......)))))))).))))))..............))))...............(((.......)))..,b'da5714cf-68ef-40c0-a3a7-3445e188b899',-83.5
...........((((.(((((((.....((........(((((((((((....((((((((.((((...((((.....((((.((.....))..)))).(((((....((((((....))))))...))))).....)))).))))))))).)))(((((((((((.((.(((.((...((.(((.((.................)).))).))..............((.((((((((................)).)))))))).)).)))...))))))).))))))............((((........)))).............)))))))))))........)).)))))))........((.(((((((((....(((......)))))))).))))))..............))))...............(((.......)))..,b'bf06e7a7-1615-408c-a5d8-abc05d13948e',-77.8
..............(((.(((((.....((........(((((((((((....((.(((.(((...((((......((((...)))).((((.(((....)))(((..((((((....))))))...))).((((((.(((((......((((.((((((..(((......)))....))).))).)))))))))....((.......)))))))).......)))).((.((((((((................))).)))))))..))))...))).))).))............(.(((((..((((......))))..))))))...)))))))))))........)).)))))......((((((.............)))))).((((((...........................))))))......................)))..,b'4c82c266-21af-4290-a6d2-82fff363b571',-75.2
...........((((.(((((((.....((........(((((((((((.(((((((((.((((((((.((((...((((...((.....)).(((....)))(((..((((((....))))))...))).((((((..((((((((..((((.((((((..(((......)))....))).))).))))...)))))))).........)))))).......)))))))).))))))))...))..........((....((((...((.((((.(((.........))))))).))...))))....)).....)))))))........)))))))))))........)).)))))))..............(((.((((((.(.....................)))))))..)))...))))...............(((.......)))..,b'cd997cfe-07b4-4dec-9b3c-3dd61eb68071',-82.7
...........((((.(((((((.....((........(((((((((((....((((((((.((((...((((.....((((.((.....))..)))).(((((....((((((....))))))...))))).....)))).))))))))).)))(((((((((((.((((.((((..((((((((((.(((((((..(((.(((.((........)).))).))).))))))).))))).......)))))...))))))....(((....))).))))))).)))))).......((((.((((........))))..)))).......)))))))))))........)).)))))))..............(((((((..............)))))))....................))))...............(((.......)))..,b'5eb7f597-16c7-4086-be1e-b49b4682ffa1',-85
......((((((..((((((...(((.((((.......((((.((((((((.....((((..(((((((((.....(((((...(((..((((......(((((....((((((....))))))...)))))......))))...))))))))....)))))))))....))))........((((((.(((((((..(((.(((.((........)).))).))).))))))).))))))....)).)))).))..))))........)))).))).((((....((((.(((((((((((((.(((((..........))))).))).)))))))))).))))....)))).................)))))))))))).(((((.((.(((..............))).)).)))))....................(((.......)))..,b'47217407-cf2e-4ee2-8a58-7d34d7f7d029',-90.1
..........(((((((((...................(((...((((((.........(((((((............)))).))).....)))).)).(((((................))))).............)))...)))).))))).(((((......))))).((......)).((((..((((((((..(((.....))).(((((......((.((.((.((((((((................)).)))))))).)).)).((((.((((....((((.(((((((((((((..((((......))))..)))).....))))))))).))))....)))).))))........)))))...(((((((..............))))))).)))))))).)))).........................(((.......)))..,b'5ec4db62-288b-4053-a848-0cd54947cf33',-74.4
.(((((...(((((..(((((((.....((........(((((((..............(((((((............)))).))).................(((((.......(((((..........((((.((((.....))))..)))).(((((((((((.((...(((.((..((.((((((((.((.((........)).)).))))).........(((((.(((((.((.......))..)))))))))).))).))..)).))).))))))).))))))..........................)))))........))))).)))))))........)).))))))).............))))).))))).((......))............((((..........))))................(((.......)))..,b'673e849e-434c-48cf-b0c7-cb7a92747329',-64.1
...........((((.(((((((.(.(((((.......(((((((((((.(((((((...(((.((.((((.......((((.((.....))..)))).(((((....((((((....))))))...))))).((((..((((((((..((((.((((((..(((......)))....))).))).))))...))))))))...)))))))).............(((((.(((((.((.......))..)))))))))).((((...((.((((.(((.........))))))).))...)))).)).)))....)))))))........))))))))))).......((..........))..........))))).))))))))......................((......))...))))...............(((.......)))..,b'f4058ec8-9fe7-4e69-8e98-1ed7c3a43906',-81.3
...........((((.(((((((.....((........(((((((((((....((((((((.((((...((((...((((...)))).(((......)))...(((..((((((....))))))...))).......)))).))))))))).)))(((((((((..(((((.((((..((((((((((.(((((((..(((.(((.((........)).))).))).))))))).))))).......)))))...))))))....(((....))).))).))).)))))).......(.(((((..((((......))))..))))))...)))))))))))........)).)))))))....((((((.(((.....))).)))))).................................))))...............((.........))..,b'30455e7c-3ecc-4b16-a43e-6789f61288a9',-81.5
...........((((.......................((((..............))))..................(((((.((((((((.((......))(((..(((((......)))))...)))............(((((..((((.((((((..(((......)))....))).))).))))...))))).(((.....))).............(.((.((.((((((((................)).)))))))).)).).(((.....((....((((.(((((((((((((.(((..............))).))).)))))))))).))))....)).....)))..)))))))).....((((((....(((......))))))))).........)))))......))))...............(((.......)))..,b'2d005c1c-0fc7-4d1b-9922-609b9db9cf4d',-68.3
..............((((((..................(((((((((((.((.((.((((.....((((((..((((.((((.((.....))..))))..........(((((......)))))...............((.(((((..((((.((((((..(((......)))....))).))).))))...))))).))...)))))))).))......))))(((((.(((((.((.......))..)))))))))).((((...((.((((.(((.........))))))).))...)))).((((......))))......)).))))))))))))).......((..........)).......)))))).((((...(((........................)))...))))....................(((.......)))..,b'dc60f0e4-cde5-482b-935a-939a1f5804c5',-77.5
...........(((((((((..................((((((((((....((((((.(((((((...((((.....((((.((.....))..)))).(((((....(((((......)))))...))))).....)))).)))...))))..)))))).((((....(((...((((.((.((((((((((......(((.....)))....................((((((.((.......))..)))))))))))).)))).)).)))).)))))))............((..(((((..((((......))))..)))))..)).)))))))))).......((..........)).......))))))..)))............................................................(((.......)))..,b'b8126897-543f-41bb-8707-bc108fde78c3',-79.4
...........((((.(((((((.....((........((((.((((((...((((((.((((......((((.....((((.((.....))..)))).......................((((...)))).....)))).......))))..))))))(((((....((.((((.......(((((.(((((((..(((.(((.((........)).))).))).))))))).)))))......((....)).)))))))))))........(((((.........)))))....(((.(((..((((......))))..))))))...)))))).))))........)).)))))))..............(((.(((((((((......)))............))))))..)))...))))...............(((.......)))..,b'59e55db6-8597-46d3-923f-f610cb4b65bb',-70.1
...........((((.((((((((((..........((((...(((......((..((.((((((((((((.....((((((((.....((((......(((......((((((....)))))).....)))......))))))))...))))....)))))))).....(.((((..((((((((((.((((((...(((.(((.((........)).))).)))..)))))).))))).......)))))...))))).)))))).))......))).))))..((((.(((((((((((((.(((((..........))))).))).)))))))))).))))....))).)))))))........((.(((((((((....(((......)))))))).))))))..............))))...............((.........))..,b'dc8f7a9a-6697-47a3-b7f7-a0156f6812ca',-77.5
................(((((((.....((........(((((((((((.((.((.((((..(((.(((((.......((((.((.....))..)))).(((((....((((((....))))))...))))).((((..((((((((..((((.((((((..(((......)))....))).))).))))...))))))))...))))))))).)))....))))(((((.(((((.((.......))..)))))))))).((((...((.((.(((((.........))))))).))...)))).((((......))))......)).)))))))))))))........)).))))))).((.(((.((.((((((.....(((.((..((((((...........................)))))).)).)))....)))))).)).))).)),b'eb9b8549-5da4-401e-a9e0-d2382f0596bc',-92.1
...........((((.......................(((((((((((.((.(((((((.....((((((..((.((((...))))....((.(.((.....)).)))..............................((((((((..((((.((((((..................))).))).))))...))))))))..))...)))).))......)))).(((.(((((((((.....((((.......))))..).)))))))).))).(((......))).......((((...((((........))))..)))).))).))))))))))))).......((..........))...........(((.((((((.(.....................)))))))..)))...))))...............(((.......)))..,b'92c14eab-7677-4407-b848-1d2958e71e42',-68.2
...........((((.(((((((.....((........(((((((((((.((((((((((..(((((((((.....(((((........((((..........(((.....((......))......)))........))))......)))))....)))))))))....)))..((((.((.((((((((((......(((.....))).(((.......)))......((((((.((.......))..)))))))))))).)))).)).)))).((.(((((................))))).))........)))))))........)))))))))))........)).)))))))........((.(((((((((....(((......)))))))).))))))..............))))...............(((.......)))..,b'83a3a92a-f972-46bc-ac92-05690756834f',-81.4
.....................................................((((.((......((((........(((((.((((((((.(((....)))(((..((((((....))))))...))).(((((..(((((.....(((.((((((((......)))))........))).)))....)))))....(((.....))).))))).........((.((.((((((((................)).)))))))).)).........((((....((((.(((((((((((((......................))).)))))))))).))))....))))........))))))))..(((((((((....(((......)))))))).)))).....)))))......))))......))..)))).(((.......)))..,b'73566aaa-7509-448f-ba6a-6dd1d800eac5',-76.9
.((((.((((((..((((((..................(((((((((((....((((((((.((((...((((.....((((.((.....))..)))).(((((....((((((....))))))...))))).....)))).))))))))).)))((((((.((((.((...(((...((((.(((((.((.((..............)).)).((((........))))((((((.((.......))..))))))..)).))).)).))..))).))))))..)))))).......(((.(((..((((......))))..))))))...))))))))))).......((..........)).......))))))))))))..)))).....................................................(((.......)))..,b'e5f752be-a63a-467f-9576-10bdf83301c8',-77.9
.((((.((((((..((((((..................((((((((((........((((..(((((((((.....((((.........((((......(((((....((((((....))))))...)))))......)))).......))))....)))))))))....)))).((((.((.((((((((((......(((.....))).((.(((((...((((....))))....)))))))...........)))))).)))).)).))))....................((..(((((..((((......))))..)))))..)).)))))))))).......((..........)).......))))))))))))..))))...................((((..........))))................(((.......)))..,b'ecdfc34e-8157-4ede-aea0-bced08e7770b',-85.4
...........((((.(((((((.....((........(((((((((((.((.((.((((.....((((((.......((((.((.....))..)))).(((((....((((((....))))))...))))).((((..((((((((..((((.((((.......................)))).))))...))))))))...)))))))).))......))))(((((.(((((.((.......))..)))))))))).((((...(..((.(((((.........)))))))..)...)))).((((......))))......)).)))))))))))))........)).)))))))........((.(((((((((....(((......)))))))).))))))..............))))...............(((.......)))..,b'49e78ffe-80a4-4369-889e-154f1f8acfaa',-85.1
............((((.(((.................(((((..............))))).(((((((((.....(((((...(((...(((......(((((.......((......))......)))))......)))....))))))))....)))))))))(((.(((.((......((((((.(((((((..(((.(((.((........)).))).))).))))))).))))))..)).)))))).)))..))))((((.((((.((((..((((....((((.(((((((((((((.(((..............))).))).)))))))))).))))....))))..)))).......((((.......))))..........................))))............(((...((((...)))).)))........)))),b'ea1e1fcd-f2ef-49f9-b084-dfcb24c69573',-74.9
...........((((.(((((((.....((........(((((((((((.((((((((((..(((((((((.....(((((...(((..((((......(((((.......(((....)))......)))))......))))...))))))))....)))))))))....))).............(((((.((.((........)).)).))))).........(((((.(((((.((.......))..)))))))))).((((...(..((.(((((.........)))))))..)...))))...........)))))))........)))))))))))........)).)))))))..............(((.((((((.((..................)).))))))..)))...))))...............(((.......)))..,b'a596eab7-0308-486b-8145-90a902a5c860',-76.1
.((((.((((((..((((((..................(((((((((((.(((((((..((((((((((((.....(((((...(((..((((......(((((.......(((....)))......)))))......))))...))))))))....))))))))..................(((((.....))))).(((.....)))...............(((((.(((((.((.......))..)))))))))).))))(((....))).........................................)))))))........))))))))))).......((..........)).......))))))))))))..)))).....................................................(((.......)))..,b'6b3ec0f3-432a-495a-a02f-0de109546fda',-64.4
...........((((.(((((((.....((........(((((((((((.(((((((...(((.((............((((.((.....))..)))).(((((....(((((......)))))...)))))......((((.......((....(((((((((((.((.(((.((.......((((((((((......(((.....))).((.(((((...((((....))))....)))))))...........)))))).)))))).)))...))))))).))))))....)).....)))).)).)))....)))))))........)))))))))))........)).)))))))..............(((.((((((.((..................)).))))))..)))...))))...............(((.......)))..,b'3f579a22-b1e7-45a4-8b55-200c559bcace',-84.5
...........((((((..(((((.....((((....((((............((.((((..(((((((((......((((...(((..((((......(((...........................)))......))))...))))))).....)))))))))....)))).))............))))...))))...)))))..)))))).......((((((((((((((((.....((((.......))))..).)))))))).(((((.((((....((((.(((((((((((((..((((......))))......))).)))))))))).))))....)))).)))))............(((((((((....(((......)))))))).)))).((((..........))))....((((...)))).)))........)))),b'9e9dfb3e-76b0-4d5a-ade7-56da9424785c',-76.8
...........((((.(((((((.....((........(((((((((((.(((((((...(((..(............((((.((.....))..))))..........((((((....))))))..............((((.............((((.(.((((.(....(((...((...((((((((.((..(((..((...........))..)))..))...((.(((((.((.......))..))))))).)))).)))).))..)))..)))))..).))))...........)))).)..)))....)))))))........)))))))))))........)).)))))))........((.(((((((((....(((......)))))))).))))))..............))))...............(((.......)))..,b'27be6507-244d-43c4-a9f7-a0e70ec69e1f',-69.9
......((((((..((((((..................((((((((((.....((((((((.((((...........(((...)))....(((......(((((....(((((......)))))...)))))......))).))))))))).)))(((((((((...................(((((.....))))).(((.....))).......(((.(((.((.((.((((((((................)).)))))))).)).)))...))).))).)))))).....((..(((((..((((......))))..)))))..)).)))))))))).......((..........)).......)))))))))))).(((((.((.(((..............))).)).)))))....................(((.......)))..,b'c3937e13-1674-4dad-9e25-33cdc7788315',-77.7
...........((((.(((((((.....((........((((((((((.....((.((..(((((((((((.....(((((...(((..((((......(((((....((((((....))))))...)))))......))))...))))))))....))))))))...........(((.((.((((((((((......(((.....))).(((.......)))......((((((.((.......))..)))))))))))).)))).)).))).)))..)).))..........((..(((((..((((......))))..)))))..)).))))))))))........)).)))))))..((((.....)))).(((((...(((........................)))...)))))))))...............(((.......)))..,b'50fc8558-db62-4a15-a80e-4b0a0e4b1396',-82.9
...........((((......................((((.(((.(((((......((((.((((...(((......((((.((.....))..)))).(((((....(((((......)))))...)))))......))).))))))))))))))))((((((((.((.(((.((......((((((.(((((((..(((.(((.((........)).))).))).))))))).))))))..)).)))))))))))))..)))).(((((.(((((.((((....((((.(((((((((((((.(((((..........))))).))).)))))))))).))))....)))).))))).((......)).(((((((((....(((......)))))))).)))).)))))..........))))...............(((.......)))..,b'd2eee265-7d9a-41bb-af53-f033dd01a457',-91.1
.............(((((((..................(((((((((((...((((((.(((...(((..((....)).))).)))...((((......(((((....(((((......)))))...)))))......))))............))))))(((((....((.((((..((((((((((.(((((((..(((.(((.((........)).))).))).))))))).))))).......)))))...)))))))))))..((.((((.((...........)))))).)).(((((..((((......))))..)))))....))))))))))).......((..........)).......))))))).((((..........))))...........((((..........))))................(((.......)))..,b'52c6b60b-60b3-461a-8ef4-87c0740d52f8',-80.5
............((((.............((......))((....((((((.....((((..(((((((((.....(((((...(((..((((......(((......((.(((....))).)).....)))......))))...))))))))....)))))))))....)))).........(((((.(((((((..(((.(((.((........)).))).))).))))))).))))).....)).))))...)).))))((((......(((((.((((....((((.(((((((((((((.((................)).))).)))))))))).))))....)))).))))).((......)).(((((((((....(((......)))))))).)))).((((..........))))...........................)))),b'89ec7b2c-3610-4dbb-91ae-eadf935b3cca',-80.2
...........((((.(((((((.....((........(((((((((((.((((((((((..(((((((((.....(((((...(((..((((......(((((....((((((....))))))...)))))......))))...))))))))....)))))))))....)))............((((((.((.((........)).)).))))))....(((.(..((.((((((((................)).))))))))..).))).(((((.........))))).......................)))))))........)))))))))))........)).)))))))..((.(((......))).))..........................................))))...............(((.......)))..,b'8f9c070a-3f83-46c6-9f5a-ab2ac2374b17',-78.6
...........((((.(((((((.....((........(((((((((((.(((((((...((((((((.(((((....((((.((.....))..)))).....(((..(((((......)))))...))).((((((.(((((......((((.((((((..................))).))).)))))))))....(((.....)))))))))..........))))).))))))))...............((....)).(((((((((...(((...............)))..))))))...))).....)))))))........)))))))))))........)).)))))))..((((.....)))).(((((...(((........................)))...)))))))))...............(((.......)))..,b'6083516c-d35e-4bdf-b672-1c582ae9df33',-75.2
......((((((..((((((..................(((((((((((....((((((((.((((...((((...((((...)))).(((......)))...(((..((((((....))))))...))).......)))).))))))))).)))((((((((((....(((...((((.((.((((((((..(((...(((.....))).((.(((((...((((....))))....))))))).........))).)))).)))).)).)))).))))))).)))))).......(((.(((..((((......))))..))))))...))))))))))).......((..........)).......)))))))))))).(((((............................)))))....................(((.......)))..,b'a69b8865-c1b9-4be4-9b8a-ae9b839ae0a1',-84.6
...........((((.(((((((.....((........((((((((((.((.((((((.((((......(((......((((.((.....))..)))).......................((((...))))......))).......))))..)))))).))...(((.(((.((.......(((((.(((((((..(((......................))).))))))).)))))...)).))))))...((....((((...((.((.(((((.........))))))).))...))))....)).....................))))))))))........)).)))))))..((.(((......))).))..........................................))))...............(((.......)))..,b'3ea1080d-e8cc-44be-a912-b13bafa82bd3',-62.5
...........((((.(((((((.....((........(((((((((((.((((((((((..(((((((((.....(((((...(((..((((........(((.......((......))......)))........))))...))))))))....)))))))))....))).........((((((.((((((...(((.(((..............))).)))..)))))).))))))..(((((((((.((..(((....))).......(((((.........))))).)))))))))))...........)))))))........)))))))))))........)).)))))))..............(((.(((((((((......)))............))))))..)))...))))...............(((.......)))..,b'dd0823be-4d3c-457a-8a3f-d7c17aad7205',-74.5
.............(((((((..................((((((((((.....((((((((.((((...((((.....((((.((.....))..)))).(((((....((((((....))))))...))))).....)))).))))))))).)))((((((((((....(((...((((.((.((((((((((......(((.....))).((.(((((...((((....))))....)))))))...........)))))).)))).)).)))).))))))).)))))).....((..(((((..((((......))))..)))))..)).)))))))))).......((..........)).......))))))).((((..........)))).............................................(((.......)))..,b'caf3f008-bc01-44d9-b363-c29aff9c5c66',-89.9
.............(((((((..................(((.(((.(((((......((((.((((...((((.....((((.((.....))..)))).(((((....((((((....))))))...))))).....)))).))))))))))))))))((((((((.((.(((.((......((((((.((((((...(((.(((.((........)).))).)))..)))))).))))))..)).)))))))))))))..)))........(((((.((((....((((.(((((((((((((.(((((..........))))).))).)))))))))).))))....)))).))))).((......))))))))).((((((.((..................)).))))))...........................(((.......)))..,b'e778b536-38b7-43a6-aea8-79b0a49a04ba',-89.4
.((((((............))).))).(((((((((((.((((((((((.((.((.((((..(((.(((((.....((((.(((((.................(((..(((((......)))))...)))......(((((((......((((.(((.((......((....))......))))).))))))))))).))))))))).))))).)))....))))...((.((((((((................))).)))))))...((..(((..........................((((........)))))))..)).)).))))))))))))........((..........))...........)))))...)))))).....................................................((.........))..,b'e389ccf1-73d1-4045-b3c9-df96e2db1bfd',-66.9
............................((((((..((((((((.((.........(((.((((((((.((((...((((.(((..(((((......)).)))...)))....................((((((((..((.(((((..((((.((((((..(((......)))....)))).)).))))...))))).))...)))...)))))........)))))))).))))))))....((((.......))))..)))....)).))))...((((....((((.(((((((((((((......................))).)))))))))).))))....)))).................)))).)))))).((((((............................))))))...................(((.......)))..,b'34974fb5-a117-4e48-b207-5d36aade1688',-66.7
...........(((((((((..................(((((((((((.((((((((((....(((..(((.(((((((...))))....))).)))..)))...)))..........((.((...........)).))(((......)))...((((((((((..................((((..((.(((....(((.....)))...............(((((.(((((.((.......))..)))))))))).))))))))).........)))).))))))..........................)))))))........))))))))))).......((..........)).......))))))..)))............................................................(((.......)))..,b'8241cd04-4b11-4a29-877b-b2fc94321282',-62.8
.((((.((((((..((((((..................((((((((((.....((((((((.((((...((((.....((((.((.....))..)))).(((((....((.((......)).))...))))).....)))).))))))))).)))((((((.((...........((((.((.((((((((((......(((.....))).((.(((((...((((....))))....)))))))...........)))))).)))).)).)))).....))..)))))).........(((((.(((..............))).))))).)))))))))).....(((......))).((......))))))))))))))..)))).....................................................(((.......)))..,b'2881bfdf-d365-40a4-b11f-9555852c914d',-75.7
......((((((..((((((..................(((((((((((.......((.((((..((..((......((((((.......(((......(((((....((((((....))))))...)))))......))).....((((.((..(((((......))))))).)))).....(((((.(((((((..(((......................))).))))))).))))).))))))...))..))..)))))).............(.(((((................))))).)........................))))))))))).......((..........)).......)))))))))))).(((((.((.(((..............))).)).)))))....................(((.......)))..,b'57b0c9b4-0bcc-465f-b980-002d9565f632',-66.2
......((((((..((((((..................(((((((((((.(((((((...(((.(((((((......((((...(((..((((......(((((....((((((....))))))...)))))......))))...))))))).....)))))))........((........))..(((((.(((.....(((........)))........))))))))(((((((((.....((((.......))))..).))))))))......(.(((((................))))).)..)))....)))))))........))))))))))).......((..........)).......)))))))))))).(((((.((.(((..............))).)).)))))....................(((.......)))..,b'0afda3d5-bc13-4573-b66e-b2388f6ae07b',-77.4
................(((((((.....((........(((((((((((.((.(((((((..(((.(((((.......((((.((.....))..)))).(((((....((((((....))))))...))))).((((..((((((((..((((.((((((..(((......)))....))).))).))))...))))))))...))))))))).)))....))))((.((.((((((((................)).)))))))).)).................................((..((((......))))..)).))).)))))))))))))........)).))))))).((.(((.((.((((((.....(((.((..((((((...........................)))))).)).)))....)))))).)).))).)),b'fc6bb546-72a6-4781-a2d2-26270ddeeddd',-84
...........((((.(((((((.....((........(((((((((((....((.((((..(((((((((.....(((((...(((..((((......(((((.......(((....)))......)))))......))))...))))))))....)))))))))....)))).)).(((((((((((((.(((.....(((........)))........))))))))(((((((((.....((((.......))))..).)))))))).(((.((.(((((................))))).))...))).))))))))........)))))))))))........)).)))))))........((.((((((((((..............)))))).))))))..............))))...............(((.......)))..,b'a39a0a63-9a41-4a0a-9d0c-c8524dbd8c5c',-82.1
.(((((...(((((..(((((((.....((........(((((((((((....(((.....(((((...((((.....((((.((.....))..)))).(((((....((((((....))))))...))))).....)))).))))).....)))((((((((((..........((((.((.((((((((((......((.(((.((........)).))).)).....((((((.((.......))..)))))))))))).)))).)).))))....)))).)))))).......(.(((((..((((......))))..))))))...)))))))))))........)).))))))).............))))).))))).((......))............((((..........))))................(((.......)))..,b'193d7a49-cf29-4574-bfd6-be1bfef578be',-84
...........((((.(((((((.....((........((((((((((........((((..(((((((((.....(((((...(((..((((......(((((....((((((....))))))...)))))......))))...))))))))....)))))))))....)))).((((.((.((((((((((......(((.....)))....................((((((.((.......))..)))))))))))).)))).)).))))....................((..(((((..((((......))))..)))))..)).))))))))))........)).)))))))..((((.....)))).(((((...(((........................)))...)))))))))...............(((.......)))..,b'50a38d9e-b099-4052-b3a2-d3d0fb954a26',-87.7
...........((((....................(((((............((((((.((((......((((.....((((.((.....))..)))).(((((....(((((......)))))...))))).....)))).......))))..))))))............)))))......((((((((((......(((.....))).(((.......)))......((((((.((.......))..)))))))))))).)))).)))).((((.((((....((((.(((((((((((((.(((((..........))))).))).)))))))))).))))....)))).)))).............(((((((((....(((......)))))))).)))).((((..........))))................(((.......)))..,b'f6c07f59-0a9b-44ba-b68c-e802fe721ab0',-81.9
.......................................((((((...........(((..(((..(((((((...(((..(((.(((((((.(((....)))(((..((((((....))))))...))).((((((..((((((((..((((.((((((..(((......)))....))).))).))))...)))))))).........))))))..............(((((((((.....((((.......))))..).)))))))).(((((.((((....((((.(((((((((((((.(((((..........))))).))).)))))))))).))))....)))).)))))..))))))))))..)))....))))))).....))).....))).((.((((..........))))))..........)))))).............,b'6f1fe5b7-8e8e-497a-801b-fa31c4a1a463',-95
................(((((((.....((........((((((((((........((((..(((((((((.....(((((...(((..((((......(((((....((.((......)).))...)))))......))))...))))))))....)))))))))....)))).((((.((.((((((((((......(((.....))).(((.......)))......((((((.((.......))..)))))))))))).)))).)).)))).(((......))).......((..(((((..((((......))))..)))))..)).))))))))))........)).))))))).((.(((.((.((((((.....(((.((..((((((...........................)))))).)).)))....)))))).)).))).)),b'3da88f5b-9f28-4b2f-a0bb-7b416d527acd',-85
................(((((((.(.(((((.......(((((((((((.......((((..(((.(((((.......((((.((.....))..))))..........(((((......)))))......(((((....((((((((..((((.(((.((....................))))).))))...))))))))..)))))))))).)))....))))...((.((((((((................)).))))))))..((.((.(((((.........))))))).)).(((((..((((......))))..)))))....))))))))))).......((..........))..........))))).))))))))......................................................(((.......)))..,b'fc0ca472-0c84-4a8f-a870-9f2c229a5b13',-77.3
............((((.....................((..........)).((((((.((((......(((......((((.((.....))..)))).(((......((((((....)))))).....)))......))).......))))..))))))((((((.((.(((.((.......(((((.(((((((..(((.(((.((........)).))).))).))))))).)))))...)).))))))))))).))))((((......(((((.((((............((((((((((.((................)).))).)))))))............)))).))))).((......)).(((((((((....(((......)))))))).)))).((((..........))))...........................)))),b'c8062bfc-189b-4006-8286-bb742c6b8b93',-76.6
...........((((.(((((((.....((........(((((((((((....((((((((.((((...((((.....((((.((.....))..)))).(((((....((((((....))))))...))))).....)))).))))))))).)))((((((((((....(((...((((.((.((((((((((......(((.....))).(((.......)))......((((((.((.......))..)))))))))))).)))).)).)))).))))))).))))))...........(((..((((......))))..)))......)))))))))))........)).)))))))........((.(((((((((....(((......)))))))).))))))..............))))...............(((.......)))..,b'1209ad87-d5c8-47ed-b5a6-3ef35071c25e',-89.8
......((((((..((((((..................((((..............)))).....(((..((....)).)))..((((((((...........................((..(((......(((.(((((((......((((.((((((..................))).))).))))))))))))))......)))..)).((((........))))(((((((((.....((((.......))))..).)))))))).(((((.((((....((((.(((((((((((((.(((((..........))))).))).)))))))))).))))....)))).)))))..)))))))).)))))))))))).(((((.((.(((..............))).)).)))))....................(((.......)))..,b'd9c72c78-ae16-48d9-8e0e-8872198d3c9f',-84.5
...........((((.(((((((.....((........(((((((((((.((.(((.((.((((((((.((((...(((((..((.....)).(((....)))(((..((((((....))))))...))).(((((..(((((........((.((((((..(((......)))....)))).)).))..)))))....(((.....))).)))))......))))))))).)))))))).))(((((((((.((..(((....))).......(((((.........))))).))))))))))).((((......)))).....))).)))))))))))))........)).)))))))..((((.....)))).(((((...(((........................)))...)))))))))...............(((.......)))..,b'4c130d72-75d4-4705-a387-031e6b873e22',-80.7
......((((((..((((((..................((((..............))))........................((((((((.(((....)))(((..((((((....))))))...))).((((((..((((((((..((((.((((((..(((......)))....))).))).))))...)))))))).........))))))..............(((((((((.....((((.......))))..).)))))))).(((((.((((....((((.(((((((((((((.(((((..........))))).))).)))))))))).))))....)))).)))))..)))))))).)))))))))))).(((((.((.(((..............))).)).)))))....................(((.......)))..,b'fe7ad8e7-f932-436a-a31a-33f18a94576d',-92.3
...........((((.(((((.......((........(((((((((((.((.((.((((..(((((((((.....(((((...(((..((((......(((((....((((((....))))))...)))))......))))...))))))))....)))))))))....))))........((((((.(((((((..(((.(((.((........)).))).))).))))))).))))))...((((.......))))..((((...((.((((................)))).))...)))).((((......))))......)).)))))))))))))........))...))))).........................((......))...........................))))...............(((.......)))..,b'3b42dd37-971a-453d-b600-ab8e1c96156c',-79
...........((((.((((((((((...........(((((..............))))).(((((((((.....(((((...(((..((((......(((((....((((((....))))))...)))))......))))...))))))))....)))))))))....((..(((((((((((.(((((.((.((........)).)).))))).........(((((.(((((.((.......))..)))))))))).....((.(((.............))).)).......(((.(((..((((......))))..))))))..)))))))))))..))....))).)))))))........((.(((((((((....(((......)))))))).))))))..............))))...............(((.......)))..,b'20d6e8e7-9134-4ff3-9149-e9f4777f7b38',-82.1
...........((((.(((((((.....((........(((((((((((.(((((((...(((.(((((((.....(((((...(((..((((......(((((....((((((....))))))...)))))......))))...))))))))....)))))))...................(((((.....))))).(((.....)))...............(((((.(((((.((.......))..)))))))))).((((...(..((.(((((.........)))))))..)...))))....)))....)))))))........)))))))))))........)).)))))))..............((((((....(((......)))))))))....................))))...............(((.......)))..,b'6e91224e-d9da-4f06-ad75-dea48c5b8187',-75.3
...........((((.(((((((.....((........(((((((((((.(((((((((.((((((((.((((...((((.(((..(((((......)).)))...)))..........((.((...........)).))(((......)))...(((((......))))).((.....((.(((.(((((((.....))).).))).))).))...))....)))))))).)))))))).)).((((.......))))..((((...((.((.(((((.........))))))).))...))))...........)))))))........)))))))))))........)).)))))))........((.(((((((((....(((......)))))))).))))))..............))))...............(((.......)))..,b'b2ad2f9c-cca2-4ff2-8c18-f9d3f7ed0d4f',-74.7
.......................................((((((...........(((..(((..(((((((...(((..(((.(((((((.(((....)))..................(((........))).(((((.(......((((.((((....(((......))).......)))).))))).)))))..(((.....))).(((.......)))......(((((((((.....((((.......))))..).)))))))).(((((.((((....((((.(((((((((((((.(((((..........))))).))).)))))))))).))))....)))).)))))..))))))))))..)))....))))))).....))).....))).((.((((..........))))))..........)))))).............,b'6cdfd782-2d01-471c-a791-e3886daca6a8',-80.2
.......(((((..((((((..................(((((((((.........(((((.((((...(((......((((.((.....))..)))).(((((.......(((....)))......)))))......))).)))))))))....((((((((((.....................(((((.((.((........)).)).))))).........((.((.((((((((................)).)))))))).))..........)))).))))))...........(((..((((......))))..)))........))))))))).......((..........)).......))))))))))).((((((............................))))))...................(((.......)))..,b'3295145f-30d3-4fc3-93f6-63b3bfadeff0',-62.7
.((((.((((((..((((((..................(((((((((((....((.((((..(((((((((.....(((((...(((..((((......(((((....((((((....))))))...)))))......))))...))))))))....)))))))))....)))).)).(((((((.((.((((((...(((.(((.((........)).))).)))..)))))).))((((..(((((((((.((..(((....))).(((.............))).......)))))))))))..)))).....)))))))........))))))))))).......((..........)).......))))))))))))..))))...................((((..........))))................(((.......)))..,b'6b920fa2-508a-4737-906d-615815aece87',-84.9
.((((.((((((..((((((.................(((((..............))))).((((............))))..((((((((.(((....)))(((..(((((......)))))...))).((((((..((((((((..((((.((((((..(((......)))....)))).)).))))...)))))))).........))))))..............(((((((((.....((((.......))))..).)))))))).(((((.((((....((((.(((((((((((((.(((((..........))))).))).)))))))))).))))....)))).)))))..)))))))).))))))))))))..)))).....................................................(((.......)))..,b'54a90295-a1c6-4558-bba5-b9b64eac4ccd',-89.5
.((((.((((((..((((((.......((((........(((((((((((......(((((...((...(((......((((.((.....))..)))).......................((((...))))......))).))..)))))))))..))).))))........))))...((.((((((((((......((.(((.((........)).))).)).....((((((.((.......))..)))))))))))).)))).))..(((((.((((....((((.(((((((((((((.(((((..........))))).))).)))))))))).))))....)))).)))))...........))))))))))))..))))...................((((..........))))................(((.......)))..,b'5ed72650-0edd-40d8-810d-ee227d598f29',-73.5
...........((((.(((((((.....((........(((((((((((.((.(((((((..(((((((((.....(((((...(((..((((......(((((....((((((....))))))...)))))......))))...))))))))....)))))))))....)))).((((.((.((((((((((......(((.....)))....................((((((.((.......))..)))))))))))).)))).)).))))...........................((..((((......))))..)).))).)))))))))))))........)).)))))))........((.(((((((((....(((......)))))))).))))))..............))))...............(((.......)))..,b'b39c0802-c5c1-4f41-aad2-d9de3179c834',-87
...........((((.(((((((.....((........((((((((((.((.((((((.((((......((((.((((((...))).)))..........................(((........))).......)))).......))))..)))))).))................((((((.(((((.((..............)).))))).....(((.((.((.((((((((................)).)))))))).)).))).(((((.........))))).........................))))))........))))))))))........)).)))))))..............(((.((((((.((..................)).))))))..)))...))))...............(((.......)))..,b'8aa8e5e0-fe5c-47f4-bd1f-8ea64126e508',-67.7
...........((((.(((((((.....((........(((((((((((.((.(((((((..(((((((((.....(((((...(((..((((......(((((....((((((....))))))...)))))......))))...))))))))....)))))))))....)))).((((.((.((((((((.((((..(((.(((.((........)).))).))).))))......((................)).)))).)))).)).))))......................((((.((((........))))..)))).))).)))))))))))))........)).)))))))........((.(((((((((....(((......)))))))).))))))..............))))...............(((.......)))..,b'0c9bc330-84f5-4511-868e-f78cc19271c0',-84.8
.((((.((((((..((((((..................((((..............))))........................((((.(((.((......))(((..((.((......)).))...))).........((......(((.((..(((((......))))))).)))......)).(((((.(((.(((..((...........))..))).))))))))(((((((((.....((((.......))))..).)))))))).(((((.((((.........(((((((((((((.(((((..........))))).))).)))))))))).........)))).)))))..))).)))).))))))))))))..(((......)))........)))).................................(((.......)))..,b'5ab9f0ac-a511-4981-b1bf-94ad2c1493c6',-72.9
...........((((.......................((((..............))))......(((((((...(((..(((.(((((((.(((....)))(((..((((((....))))))...))).((((((..((((((((..((((.((((((..(((......)))....))).))).))))...)))))))).........))))))......((.(..((.((((((((................)).))))))))..).)).((((.((((....((((.(((((((((((((.(((((..........))))).))).)))))))))).))))....)))).))))...))))))))))..)))....)))))))...................((.((......)))).))))...............(((.......)))..,b'8337e584-d327-4442-a73f-f39684bd69b8',-90.5
...........((((.(((((((.....((........((((((((((.....((((((((.((((...((((.....((((.((.....))..)))).(((.(((..((((((....))))))...)))..)))..)))).))))))))).)))(((((((((((.((..............(((((.(((((((..(((.(((.((........)).))).))).))))))).)))))..........((((...(((....)))...).))).))))))).)))))).....((..(((((..((((......))))..)))))..)).))))))))))........)).)))))))........((.(((((((((....(((......)))))))).))))))..............))))...............(((.......)))..,b'85843df8-a610-4959-988f-f41d95cbecfd',-88.1
...........((((.(((((((.....((........(((((((((((.(((((((.((..(((((((((.....(((((...(((..((((......(((......(((((......))))).....)))......))))...))))))))....))))))))).)).(((((.....((.((((((((.((.((........)).)).))))).........(((((.(((((.((.......))..)))))))))).))).)).....))).)).(((....................)))...........)))))))........)))))))))))........)).)))))))....((((((.(((.....))).)))))).................................))))...............(((.......)))..,b'9e1eef04-7a31-4942-9aba-f698678a2a06',-77.1
...........((((.(((((((.....((........(((((((((((.......((((..(((.(((((.....((((.(((((...(((((((((.....(((..((((((....))))))...))).........................(((((......))))).((......)).)))).))))).....))))))))).))))).)))....))))...((.((((((((................))).)))))))..((.((.(((((.........))))))).)).(((((..((((......))))..)))))....)))))))))))........)).)))))))..............(((.(((((((((......)))............))))))..)))...))))...............(((.......)))..,b'ed1c9ecc-7b10-4597-bcee-238d8225226a',-81.4
.((((.((((((..((((((........(((......((((...............((((..(((.(((((.......((((.((.....))..)))).(((((....(((((......)))))...))))).((((..((((((((..((((.((((((..................))).))).))))...))))))))...))))))))).)))....))))(((((.(((((.((.......))..)))))))))).))))....))).((((.((((....((((.(((((((((((((..((((......))))..)))).....))))))))).))))....)))).))))............))))))))))))..)))).....................................................(((.......)))..,b'dac506ec-03ae-4093-9f75-cbc305e3fedf',-86.8
...........((((.(((((((.....((........(((((((((((.((((..((((..(((((((((.....(((((...(((..((((......(((((....((((((....))))))...)))))......))))...))))))))....)))))))))....)))).((((.((.((((((((((......((.......))....................((((((.((.......))..)))))))))))).)))).)).))))...........................((((........)))).))))........)))))))))))........)).)))))))..((((.....)))).(((((...(((........................)))...)))))))))...............(((.......)))..,b'9b1bc420-f428-4787-a9af-12543a10414e',-81.1
...........((((.(((((((.....((........((((((((((........((((..(((((((((.....((((((((.....((((..........(((..((((((....))))))...)))........))))))))...))))....)))))))))....))))............(((((.((......(((........))).........)))))))(((((((((.....((((.......))))..).))))))))...(((((.........))))).(((..(((((..((((......))))..)))))..)))))))))))))........)).))))))).....(((......))).(((((((((......)))............))))))........))))...............(((.......)))..,b'2a807666-7af6-449e-a178-ad2a89ed74d9',-80.6
.....................................................((((.((......((((........(((((.((((((((.(((....)))(((..((((((....))))))...))).((((((..((((((((..((((.((..((..................))...)).))))...)))))))).........)))))).......(.((.((.((((((((................)).)))))))).)).).(((((.((((....((((.(((((((((((((.(((((..........))))).))).)))))))))).))))....)))).)))))..))))))))..(((((((((....(((......)))))))).)))).....)))))......))))......))..)))).(((.......)))..,b'213d763e-2746-491f-877f-dbbebfc36f91',-86.5
...........((((.(((((((.....((........((((((((((........((((..(((((((((.....(((((....(((..(((......(((((....((((((....))))))...)))))......))).)))...)))))....)))))))))....)))).((((.((.((((((((..(((...(((.....))).............(((....))).((((....))))........))).)))).)))).)).))))....................((..(((((..((((......))))..)))))..)).))))))))))........)).)))))))........((.(((((((((....(((......)))))))).))))))..............))))...............(((.......)))..,b'19dfb24a-5220-4dfd-8cc8-943b7cf500f7',-81.6
...........((((.(((((((.....((........(((((((((((.((.((.((((..(((.(((((.....((((.(((((........((....)).(((..((((((....))))))...)))......(((((((............(((((......))))).((((..........))))))))))).))))))))).))))).)))....))))(((((.(((((.((.......))..))))))))))...................(((....................))).((((......))))......)).)))))))))))))........)).)))))))........((.(((((((((....(((......)))))))).))))))..............))))...............(((.......)))..,b'41082eec-87b0-4d03-bc55-367b81de8cce',-82
..............(((..(((................((((..............))))......(((((((...(((..(((.(((((((.(((....)))(((..((((((....))))))...))).((((((..((((((((..((((.((((((..(((......)))....))).))).))))...)))))))).........))))))..............(((((((((.....((((.......))))..).)))))))).(((((...((....((((.(((((((((((((.(((((..........))))).))).)))))))))).))))....))...)))))..))))))))))..)))....)))))))....................((((..........)))).....................)))..)))..,b'fe195805-01b1-42c4-b0b7-1f569d382f9a',-87.8
...........((((.(((((((.....((........((((((((((.....((((((((.((((...(((......((((.((.....))..))))..................(((........)))........))).))))))))).)))(((((((((...........((((.((.(((((.((........(((.....)))....((((........))))((((((.((.......))..))))))..)).).)))).)).)))).....))).)))))).....((..(((((..((((......))))..)))))..)).))))))))))........)).)))))))........((.((((((((((..............)))))).))))))..............))))...............(((.......)))..,b'a5760051-47c7-4f33-9dc4-c144168f11fc',-72.7
...........((((.(((((((.....((........(((((((((((....(((((.(((.......((((.....((((.((.....))..)))).(((((....((((((....))))))...))))).....))))........)))..))))).(((((.....(.((((....((((((((.(((((((..(((.(((..............))).))).))))))).))))).........)))...))))).))))).((((((...(((...(((....)))..)))..)))))).((((......))))...........)))))))))))........)).)))))))..............(((.(((((((((......)))............))))))..)))...))))...............(((.......)))..,b'9e86f273-d830-4885-8086-cdd2a16207e7',-77.3
.............(((((((..................(((((((((((....((.((((..(((((((((.....(((((...(((..((((......(((((....((((((....))))))...)))))......))))...))))))))....)))))))))....)))).)).(((((((.((.((((((...(((.(((.((........)).))).)))..)))))).))((((..(((((((((.((..(((....))).......(((((.........))))).)))))))))))..)))).....)))))))........))))))))))).....(((......))).((......))))))))).((((((.((..................)).))))))...........................((.........))..,b'b9e39dad-ff26-4d18-ae88-17b84c6a357a',-83.7
................(((((((.(.(((((.......(((((((((((.((((((((((..(((.(((((.......((((.((.....))..)))).(((((....((((((....))))))...))))).((((..((((((((..((((.((((((..(((......)))....))).))).))))...))))))))...))))))))).)))....))).(((((.(((((.((.......))..)))))))))).((((...(..((.(((((.........)))))))..)...))))...........)))))))........))))))))))).......((..........))..........))))).))))))))......................................................(((.......)))..,b'12ffd87c-8f7d-443f-ad36-dae6c6ce19b2',-79.4
...........((((.(((((((.....((........(((((((((((..........(((...(((..((....)).))).)))....(((......(((((....((((((....))))))...)))))......)))..............((((((((((.......(((........(((((.((.((..............)).)).)).........(((((.(((((.((.......))..)))))))))).)))........)))....)))).)))))).......(((.(((..((((......))))..))))))...)))))))))))........)).)))))))..((.(((......))).))....(((......)))..........................))))...............(((.......)))..,b'f9728215-f448-456d-a8b6-b8d545defbdf',-70.1
...........((((.(((((((.....((........((((((((((.....((((((((.((((...((((.....((((.((.....))..)))).(((((....((((((....))))))...))))).....)))).))))))))).)))((((((((((..........((((.((.((((((((((......((.(((.((........)).))).)).....((((((.((.......))..)))))))))))).)))).)).))))....)))).)))))).....((..(((((..((((......))))..)))))..)).))))))))))........)).)))))))........((.((((((((((..............)))))).))))))..............))))...............((.........))..,b'ae198268-1466-4c67-a287-4ee4ee5720c4',-88.7
...........((((.(((((((.....((........(((((((((((....((((((((.((((...((((.....((((.((.....))..)))).(((((....((((((....))))))...))))).....)))).))))))))).)))(((((((((((.((...((........))..(((((.(((.....(((........)))........))))))))(((((((((.....((((.......))))..).)))))))).....))))))).)))))).......(((.(((..((((......))))..))))))...)))))))))))........)).)))))))..((((.....)))).(((((...(((........................)))...)))))))))...............(((.......)))..,b'69a61530-c0cd-4e97-ae72-d324b681531d',-87.7
...........((((.......................((((..............)))).....................(((.(((((((.(((....)))................((.((...........)).))(((......)))........(((((....((.((((..((((((((((.(((((((..(((.(((..............))).))).))))))).))))).......)))))...)))))))))))......((((...(((....((((.((((((((((.((..((((......))))......))..)))))))))).))))....)))...))))..)))))))))).((((((((....(((......)))))))).))).((.((......)))).))))...............(((.......)))..,b'aaac978e-0f74-4013-9ba4-d02c7530056e',-71.2
...........((((...(((((.....((........(((((((((((....(((((.(((((.((((((.......((((.((.....))..)))).....................((.((...........)).))(((......))).....))))))....................(((((.(((((((..(((.(((.((........)).))).))).))))))).)))))....((((.......)))).)))))(((....)))...........................((((........)))).))))).......)))))))))))........)).)))))..........((.(((((((((................))))).))))))..............))))...............(((.......)))..,b'54a4a261-6405-45c1-8576-12ea5830a1e4',-61.8
...........((((.(((((((.....((........(((((((((((.((((((((((..(((((((((.....(((((.........(((......(((((.......((......))......)))))......))).......)))))....)))))))))....)))..((((.((.((((((((((......((.(((.((........)).))).)).....((((((.((.......))..)))))))))))).)))).)).)))).((.((((..................)))).))........)))))))........)))))))))))........)).)))))))........((.(((((((((....(((......)))))))).))))))..............))))...............(((.......)))..,b'cbea9b49-4d69-41e8-89f9-d45426116f8a',-80.7
...........((((.(((((((.....((........((((((((((.....((((((((.((((...((((.....((((.((.....))..)))).(((((....((((((....))))))...))))).....)))).))))))))).)))(((((((((((.((...(((.((..((.((((((((.((.((........)).)).))))).........(((((.(((((.((.......))..)))))))))).))).))..)).))).))))))).)))))).....((..(((((..((((......))))..)))))..)).))))))))))........)).)))))))....((((((.(((.....))).)))))).................................))))...............(((.......)))..,b'd6a2bf93-cb3b-4d8e-808b-658f8945835d',-90.9
...........((((.(((((((.....((........(((((((((((.((((((((((...((((((((.....(((((...(((..((((.((....))..............(((........)))........))))...))))))))....)))))))).....))).........((((((.(((((((..(((.(((.((........)).))).))).))))))).))))))..((((((((..((((((.........))).))).(((......))).........))))))))...........)))))))........)))))))))))........)).)))))))..............(((.(((((((((......)))............))))))..)))...))))...............(((.......)))..,b'5beb6085-2628-4402-8e87-37eaebb7eb71',-73.4
...........((((.(((((((.....((........(((((((((((.(((((((...(((.(((((((......((((...(((..((((......(((((.......((......))......)))))......))))...))))))).....)))))))........((......)).(((((.((((((...(((.(((.((........)).))).)))..)))))).))))).........((.((....((....))....))..)).(.(((....................))).)..)))....)))))))........)))))))))))........)).)))))))........((.(((((((((....(((......)))))))).))))))..............))))...............(((.......)))..,b'45f63a6d-9c4c-4283-96d6-27f5b10d1960',-66.8
...........((((.(((((((.....((........(((((((((((....((.((((..(((((((((.....(((((...(((..((((......(((((....((((((....))))))...)))))......))))...))))))))....)))))))))....)))).)).(((((((.((.(((((((..(((.(((.((........)).))).))).))))))).))((((..(((((((((.((((....)).((....))..(((((.........))))).)))))))))))..)))).....)))))))........)))))))))))........)).)))))))........((.(((((((((....(((......)))))))).))))))..............))))...............(((.......)))..,b'04218ea2-6071-4d20-ace1-48c2bc58ab4e',-90.8
...........((((.......................((((..............)))).(((..(((((((...(((..(((.(((((((.(((....)))(((..((((((....))))))...))).........((.....((((.((..(((((......))))))).)))).....)).(((((.((.((........)).)).))))).........(((((.(((((.((.......))..))))))))))....((....)).((((..(((....((((.(((((((((.(((.(((((..........))))).)))..))))))))).))))....)))..))))...))))))))))..)))....))))))).....)))...........((.((......)))).))))...............(((.......)))..,b'0766994a-39e5-4413-83d6-d44348be83a9',-82.4
